{
    "photos": {
        "page": 1,
        "pages": 7227,
        "perpage": 10,
        "total": "72266",
        "photo": [
            {
                "id": "50141203137",
                "owner": "188829145@N08",
                "secret": "7786cb1028",
                "server": "65535",
                "farm": 66,
                "title": "Do you really need a TV licence?",
                "ispublic": 1,
                "isfriend": 0,
                "isfamily": 0
            },
            {
                "id": "50139629946",
                "owner": "188888382@N05",
                "secret": "8e563657bf",
                "server": "65535",
                "farm": 66,
                "title": "Carpet Cleaning Adelaide | Australia",
                "ispublic": 1,
                "isfriend": 0,
                "isfamily": 0
            },
            {
                "id": "50139537561",
                "owner": "122997855@N06",
                "secret": "877fce37dd",
                "server": "65535",
                "farm": 66,
                "title": "Ultimate Guide to effective outdoor advertising campaigns",
                "ispublic": 1,
                "isfriend": 0,
                "isfamily": 0
            },
            {
                "id": "50137814408",
                "owner": "87674798@N06",
                "secret": "3d13d999be",
                "server": "65535",
                "farm": 66,
                "title": "Leather tanning in Chouara Tannery - Fez",
                "ispublic": 1,
                "isfriend": 0,
                "isfamily": 0
            },
            {
                "id": "50136373038",
                "owner": "187137395@N08",
                "secret": "8bbf019995",
                "server": "0",
                "farm": 0,
                "title": "universal asset management tokyo review investment manager",
                "ispublic": 1,
                "isfriend": 0,
                "isfamily": 0
            },
            {
                "id": "50136279863",
                "owner": "186111496@N08",
                "secret": "6700d4ed05",
                "server": "65535",
                "farm": 66,
                "title": "MBA Direct Admission in AIMS Bangalore 2020, Direct Admission in AIMS Institutes Bangalore",
                "ispublic": 1,
                "isfriend": 0,
                "isfamily": 0
            },
            {
                "id": "50136502286",
                "owner": "183299510@N04",
                "secret": "3eb8c2bbfc",
                "server": "65535",
                "farm": 66,
                "title": "International Freight Software",
                "ispublic": 1,
                "isfriend": 0,
                "isfamily": 0
            },
            {
                "id": "50139256701",
                "owner": "189044072@N07",
                "secret": "a2ee48ffff",
                "server": "65535",
                "farm": 66,
                "title": "Scan_20200721 (15)",
                "ispublic": 1,
                "isfriend": 0,
                "isfamily": 0
            },
            {
                "id": "50137169493",
                "owner": "186078526@N07",
                "secret": "7764a37fa8",
                "server": "65535",
                "farm": 66,
                "title": "Cookies, Runtz, Minntz and more are arriving at Dockside",
                "ispublic": 1,
                "isfriend": 0,
                "isfamily": 0
            },
            {
                "id": "50136349147",
                "owner": "189452115@N08",
                "secret": "f87c4134e2",
                "server": "65535",
                "farm": 66,
                "title": "9 Best Smart Coffee Makers for 2020",
                "ispublic": 1,
                "isfriend": 0,
                "isfamily": 0
            }
        ]
    },
    "stat": "ok"
}
